<?xml version="1.0" encoding="UTF-8"?>
<svg version="1.1" viewBox="0 0 375.18 282.98" xmlns="http://www.w3.org/2000/svg" xmlns:cc="http://creativecommons.org/ns#" xmlns:dc="http://purl.org/dc/elements/1.1/" xmlns:rdf="http://www.w3.org/1999/02/22-rdf-syntax-ns#" xmlns:xlink="http://www.w3.org/1999/xlink">
<defs>
<radialGradient id="b" cx="91.667" cy="-489.73" r="28.141" gradientTransform="matrix(-.31333 .85438 -1.0004 -.36687 -369.53 -742.88)" gradientUnits="userSpaceOnUse">
<stop stop-color="#7e7e8d" offset="0"/>
<stop stop-color="#18181b" offset="1"/>
</radialGradient>
<linearGradient id="a" x1="720.74" x2="741" y1="-153.03" y2="-153.03" gradientUnits="userSpaceOnUse">
<stop stop-color="#ffc6a1" offset="0"/>
<stop stop-color="#ffba8d" offset=".5"/>
<stop stop-color="#ff7f2c" offset="1"/>
</linearGradient>
<linearGradient id="i" x1="454.99" x2="657.93" y1="665.78" y2="665.78" gradientTransform="translate(-277.34 -449.76)" gradientUnits="userSpaceOnUse">
<stop stop-color="#563b09" offset="0"/>
<stop stop-color="#291d04" offset="1"/>
</linearGradient>
<linearGradient id="j" x1="288.72" x2="659.87" y1="663.62" y2="663.62" gradientTransform="translate(-279.72 -447.68)" gradientUnits="userSpaceOnUse">
<stop stop-color="#593d09" offset="0"/>
<stop stop-color="#7f5200" offset="1"/>
</linearGradient>
<filter id="l" color-interpolation-filters="sRGB">
<feGaussianBlur stdDeviation="1.6870582"/>
</filter>
<linearGradient id="h" x1="378.68" x2="396.66" y1="-440.88" y2="-440.88" gradientTransform="translate(-1.6774 13.419)" gradientUnits="userSpaceOnUse">
<stop stop-color="#f1aac2" offset="0"/>
<stop stop-color="#e5638f" offset="1"/>
</linearGradient>
<linearGradient id="g" x1="378.68" x2="396.66" y1="-440.88" y2="-440.88" gradientTransform="matrix(-1 0 0 1 894.26 13.943)" gradientUnits="userSpaceOnUse">
<stop stop-color="#f1aac2" offset="0"/>
<stop stop-color="#e5638f" offset="1"/>
</linearGradient>
<linearGradient id="d" x1="431.76" x2="473.73" y1="-381.62" y2="-348.91" gradientUnits="userSpaceOnUse">
<stop stop-color="#ffceae" offset="0"/>
<stop stop-color="#ffb280" offset="1"/>
</linearGradient>
<linearGradient id="e" x1="432.47" x2="448.06" y1="-362.31" y2="-362.31" gradientTransform="translate(-1.6774 13.419)" gradientUnits="userSpaceOnUse" xlink:href="#c"/>
<linearGradient id="c">
<stop stop-color="#8a8a8a" offset="0"/>
<stop stop-color="#f1f1f1" offset=".28571"/>
<stop stop-color="#fff" offset="1"/>
</linearGradient>
<linearGradient id="f" x1="445.94" x2="461.53" y1="-362.69" y2="-362.69" gradientTransform="translate(-1.6774 13.419)" gradientUnits="userSpaceOnUse" xlink:href="#c"/>
<linearGradient id="k" x1="475.48" x2="475.48" y1="694.84" y2="584.53" gradientTransform="translate(-279.72 -447.68)" gradientUnits="userSpaceOnUse">
<stop offset="0"/>
<stop stop-color="#4b3000" offset="1"/>
</linearGradient>
</defs>
<g transform="translate(-2.8113 -5.2941)">
<g transform="translate(-6.192 -1.548)">
<path d="m137.64 157.43c2.514 0 4.8602 0.73017 6.8504 1.9628 0.058-6.2e-4 0.11503 0 0.17324 0 6.972 0 12.678 5.4685 13.027 12.354 0.0121 0.2221 0 0.44859 0 0.6735 0 1.8865-0.41523 3.6736-1.1353 5.2917 1.3887 2.0718 2.1937 4.5517 2.1937 7.2352 0 0.2249 0.0121 0.4514 0 0.67349-0.34902 6.8853-6.0553 12.354-13.027 12.354-0.68886 0-1.3603-0.0516-2.0205-0.15401-2.0446 1.3344-4.4951 2.1167-7.1198 2.1167-2.5421 0-4.922-0.72342-6.9274-1.982-0.25506 0.0156-0.51071 0.0192-0.76971 0.0192-7.1969 0-13.046-5.8304-13.046-13.027 0-1.8957 0.4239-3.6896 1.1546-5.311-1.3924-2.0668-2.2129-4.5347-2.2129-7.216 0-7.1969 5.8496-13.027 13.046-13.027 0.87854 0 1.7312 0.0856 2.5593 0.25016 2.0764-1.3969 4.564-2.2129 7.2545-2.2129z" color="#000000" fill="#734b02" stroke="#000" stroke-width="1.8473"/>
<path d="m250.07 126.63c-3.357 0-6.4253 1.0424-8.8125 2.8125-1.9356-0.92165-4.1485-1.4375-6.5-1.4375-7.5925 0-13.75 5.4633-13.75 12.188 0 1.3176 0.25032 2.5928 0.6875 3.7812-0.55225 0.55354-1.0357 1.1472-1.4688 1.7812-3.1328-2.6098-7.5354-4.25-12.438-4.25-7.3037 0-13.537 3.6252-16.031 8.7188-1.751-0.83868-3.6728-1.3438-5.6875-1.3438-3.2831 0-6.3321 1.2316-8.8125 3.3125-2.2991-1.6505-4.9813-2.625-7.875-2.625-4.3467 0-8.2736 2.1508-11.031 5.5938-1.6241-0.40316-3.3333-0.59375-5.125-0.59375-4.3666 0-8.3394 1.2872-11.375 3.4062-3.3837-4.5559-9.2339-7.5625-15.906-7.5625-10.481 0-19 7.4228-19 16.594 0 2.1861 0.49761 4.2759 1.375 6.1875-0.96721-0.19539-1.903-0.46597-2.8125-0.8125-3.0491 6.3173-9.2128 10.625-16.344 10.625-0.28557 0-0.56136 0.0137-0.84375 0-1.5518 9.409-10.396 16.625-21.094 16.625-1.7472 0-3.4372-0.23084-5.0625-0.59375-1.434 2.7617-4.4989 5.0827-8.5 6.5625-2.5815 2.8056-5.9462 4.7782-9.7188 5.5312 1.5932 0.6685 3.3067 1.0625 5.0938 1.0625 2.7212 0 5.2308-0.8396 7.4375-2.3125 1.0687 4.3374 4.4859 7.5 8.5312 7.5 4.9013 0 8.875-4.6625 8.875-10.406 0-1.2024-0.17967-2.3631-0.5-3.4375 3.4706-0.76632 6.5206-2.9372 8.7188-5.9688 0.83515 0.41221 1.7214 0.76765 2.625 1 0.1748 0.28971 0.36428 0.56145 0.5625 0.84375-0.26522-0.028-0.54106-0.0312-0.8125-0.0312-4.9013 0-8.8438 4.6313-8.8438 10.375s3.9425 10.406 8.8438 10.406c2.8168 0 5.343-1.5391 6.9688-3.9375 3.6521 6.5708 13.347 11.378 25 11.906 1.5306 3.1258 4.4229 5.25 7.7188 5.25 2.955 0 5.5433-1.7095 7.1562-4.3125 0.83929 0.89391 1.8046 1.7763 2.875 2.5625 0.68778 4.9415 4.3389 8.6875 8.75 8.6875 2.4017 0 4.5585-1.1213 6.1562-2.9375 0.0762 0.0119 0.1736 0.0198 0.25 0.0312 1.3364 3.7608 4.4942 6.4062 8.1875 6.4062 1.0606 0 2.0884-0.22509 3.0312-0.625 5.2539 3.6014 12.88 5.875 21.344 5.875 11.221 0 20.904-3.9818 25.625-9.7812 0.64363-0.0274 1.3062-0.0719 1.9375-0.125 1.775 0.76135 3.7206 1.2188 5.8125 1.2188 5.7348 0 10.657-3.2044 12.719-7.75 0.34415-0.26651 0.64945-0.53378 0.96875-0.8125 0.75206 0.11608 1.5242 0.21875 2.3125 0.21875 1.1907 0 2.3357-0.14702 3.4375-0.40625 1.5306 3.1258 4.4229 5.2188 7.7188 5.2188 3.5809 0 6.6599-2.4834 8.0625-6.0625 0.7679 0.11784 1.5378 0.1875 2.3438 0.1875 2.6228 0 5.071-0.65252 7.1562-1.7812 1.5869 1.7427 3.7161 2.7812 6.0625 2.7812 3.7664 0 6.9928-2.7452 8.2812-6.625 0.37036 0.0387 0.71567 0.0625 1.0938 0.0625 0.93173 0 1.8703-0.11577 2.75-0.34375 1.4783 1.2904 3.2962 2.0312 5.2812 2.0312 3.6584 0 6.7983-2.577 8.1562-6.2812 2.0829 1.1573 4.538 1.8125 7.1562 1.8125 5.3429 0 9.9748-2.757 12.25-6.8125 1.5898 0.58514 3.3363 0.90625 5.1562 0.90625 7.5925 0 13.719-5.615 13.719-12.531 0-0.81927-0.0851-1.5996-0.25-2.375 1.0582-1.7744 1.6562-3.8074 1.6562-5.9688 0-4.037-2.1192-7.6161-5.375-9.9062 0.31612-1.0539 0.5-2.1672 0.5-3.3125 0-6.9163-6.1575-12.531-13.75-12.531-0.67161 0-1.3229 0.0715-1.9688 0.15625 0.26514-0.94408 0.40625-1.9208 0.40625-2.9375 0-6.7242-6.1575-12.188-13.75-12.188-0.2195 0-0.40801 0.0222-0.625 0.0312-1.5332-3.1142-4.4303-5.1875-7.7188-5.1875-1.2848 0-2.4913 0.33061-3.5938 0.90625-3.4032-5.8314-11.629-10.236-21.688-11.406 0.0139-0.22476 0.0625-0.45966 0.0625-0.6875 0-6.7242-6.1575-12.156-13.75-12.156zm34.625 45.375c0.51264 1.0932 1.2001 2.095 2.0312 3-0.76302-0.10104-1.5283-0.18727-2.3125-0.25 0.20298-0.83233 0.28125-1.6764 0.28125-2.5625 0-0.0699 2e-3 -0.11786 0-0.1875zm-30.344 2.4375c1.0185 0.0892 2.075 0.13489 3.125 0.15625 0.13297 0.58172 0.33951 1.1391 0.5625 1.6875-1.1858-0.5743-2.4562-1.0763-3.7812-1.5312 0.0327-0.10353 0.0641-0.20787 0.0937-0.3125z" color="#000000" fill="url(#k)"/>
<path d="m140.93 161.59c2.514 0 4.8602 0.73018 6.8504 1.9628 0.058-6.3e-4 0.11486 0 0.17324 0 6.972 0 12.678 5.4685 13.027 12.354 0.0121 0.22209 0 0.44859 0 0.67349 0 1.8865-0.41522 3.6736-1.1353 5.2917 1.3887 2.0718 2.1937 4.5517 2.1937 7.2352 0 0.2249 0.0121 0.45139 0 0.67349-0.34901 6.8853-6.0553 12.354-13.027 12.354-0.68886 0-1.3603-0.0518-2.0205-0.15401-2.0446 1.3344-4.4951 2.1167-7.1198 2.1167-2.5421 0-4.922-0.72342-6.9273-1.982-0.25506 0.0156-0.51072 0.0192-0.76971 0.0192-7.1969 0-13.046-5.8304-13.046-13.027 0-1.8957 0.42389-3.6896 1.1546-5.311-1.3924-2.0668-2.2129-4.5347-2.2129-7.216 0-7.1969 5.8496-13.027 13.046-13.027 0.87854 0 1.7312 0.0856 2.5593 0.25014 2.0764-1.3969 4.564-2.2129 7.2545-2.2129z" color="#000000" fill="#3b2906"/>
<g transform="translate(-262.37 501.57)">
<g transform="matrix(1.3433 0 0 1.3433 -153.04 122.53)">
<path d="m445.55-457.32c-0.182 0-0.42764 0.0281-0.625 0.0312v0.0312c-10.888 0.12684-37.357 2.4311-47.094 26.156-4.8528-6.4502-4e-3 2e-3 -15.656-14.844 0 0-19.638 19.242 7.1562 32.906 9.3068 86.349-9.654 119.53 45.438 118.34 3.1387-0.0676 6.5844-0.022 10.156 0.0625 0.0318 7.5e-4 0.0619-7.6e-4 0.0937 0 0.5516 0.0132 1.0657 0.0157 1.625 0.0312v-0.0625c3.5751-0.0847 7.015-0.13017 10.156-0.0625 55.091 1.1861 36.131-31.995 45.438-118.34 26.794-13.665 7.1562-32.906 7.1562-32.906-15.652 14.846-10.803 8.3935-15.656 14.844-10.065-24.526-38.061-26.188-48.188-26.188z" fill="#333" stroke="#000" stroke-linecap="round" stroke-linejoin="round" stroke-width="4.3252"/>
<path transform="matrix(1.1781 0 0 .9978 -80.102 -23.284)" d="m491.48-290.82c0 31.729-19.714 57.451-44.032 57.451s-44.032-25.722-44.032-57.451 19.714-57.451 44.032-57.451 44.032 25.722 44.032 57.451z" color="#000000" fill="#93939f" stroke="#000" stroke-linecap="round" stroke-linejoin="round" stroke-width="1.8447"/>
<path d="m446.26-370.12c27.862 0.99064 50.188 26.25 50.188 57.281 0 29.287-19.874 53.419-45.531 56.875 17.902-4.9981 31.438-28.376 31.438-56.469 0-30.487-15.934-55.429-36.094-57.344v-0.34375z" color="#000000" fill="#7f7f8d"/>
<path d="m446.12-370.97c-27.862 0.99064-50.188 26.25-50.188 57.281 0 29.287 19.874 53.419 45.531 56.875-17.902-4.9981-31.438-28.376-31.438-56.469 0-30.487 15.934-55.429 36.094-57.344v-0.34375z" color="#000000" fill="#c1c1c8"/>
<path d="m426.75-436.08c-12.86 0-23.304 12.074-23.304 26.954 0 14.877 10.444 26.953 23.304 26.953 7.5575 0 14.263-4.1738 18.52-10.633 4.256 6.4632 10.977 10.633 18.539 10.633 12.856 0 23.301-12.076 23.301-26.953 0-14.88-10.445-26.954-23.301-26.954-7.5604 0-14.283 4.1723-18.539 10.634-4.2574-6.4575-10.964-10.634-18.52-10.634z" fill="#fff" stroke="#000" stroke-linecap="round" stroke-width="4.0828"/>
<path transform="matrix(1.2902 0 0 1.2902 -131.49 135.44)" d="m470.4-440.96c0.22052 1.3258 0.32521 2.7029 0.32521 4.1028 0 11.91-8.3459 21.564-18.637 21.564-6.0535 0-11.453-3.3316-14.86-8.5057-3.4082 5.1706-8.7599 8.5057-14.81 8.5057-3.0013 0-5.8423-0.81726-8.3556-2.2765 1.6578 9.9516 9.2289 17.487 18.312 17.487 6.05 0 11.427-3.3601 14.835-8.5307 3.407 5.174 8.7814 8.5307 14.835 8.5307 10.292 0 18.662-9.6798 18.662-21.589 0-8.4392-4.2001-15.742-10.307-19.288z" fill="#a5a5a5" filter="url(#l)" opacity=".33745"/>
<g transform="matrix(1.4417 0 0 1.4417 76.815 -486.6)">
<path d="m254.54 55.006c0 2.584-2.096 4.679-4.68 4.679-2.583 0-4.679-2.095-4.679-4.679 0-2.585 2.096-4.68 4.679-4.68 2.585 1e-3 4.68 2.095 4.68 4.68z" stroke="#000" stroke-linecap="round" stroke-width="1.795"/>
<path d="m249.39 53.367c0 0.67-0.544 1.213-1.214 1.213s-1.213-0.543-1.213-1.213 0.543-1.214 1.213-1.214 1.214 0.544 1.214 1.214z" fill="#fff"/>
</g>
<g transform="matrix(1.4417 0 0 1.4417 76.815 -486.6)">
<path d="m266.39 55.006c0 2.584-2.095 4.679-4.679 4.679-2.585 0-4.68-2.095-4.68-4.679 0-2.585 2.095-4.68 4.68-4.68 2.584 1e-3 4.679 2.095 4.679 4.68z" stroke="#000" stroke-linecap="round" stroke-width="1.795"/>
<path d="m261.24 53.367c0 0.67-0.543 1.213-1.213 1.213s-1.213-0.543-1.213-1.213 0.543-1.214 1.213-1.214 1.213 0.544 1.213 1.214z" fill="#fff"/>
</g>
<path d="m380.41-438.95s-10.158 11.773 7.4996 22.936c2.8348-2.7465 3.2401-3.2323 6.5747-5.8764v-2.125c-4.0396-2.2033-2.175-5.0849-8.7629-13.275l-5.3114-1.6604z" fill="url(#h)" stroke="#000"/>
<path d="m512.17-438.42s10.158 11.773-7.4996 22.936c-2.8348-2.7465-3.2401-3.2323-6.5747-5.8764v-2.125c4.0396-2.2033 2.175-5.0849 8.7629-13.275l5.3114-1.6604z" fill="url(#g)" stroke="#000"/>
<path d="m439.55-368.45c27.862 0.99064 50.188 26.25 50.188 57.281 0 29.287-19.874 53.419-45.531 56.875 17.902-4.9981 31.438-28.376 31.438-56.469 0-30.487-15.934-55.429-36.094-57.344v-0.34375z" color="#000000" fill="#7f7f8d"/>
<path d="m445.76-390.21c-8.5947 0-16.007 4.2366-19.406 10.34-7.84 2.4214-12.875 6.2197-12.875 10.481 0 1.1738 0.40651 2.3226 1.125 3.4064-0.53974 1.2571-0.8125 2.5668-0.8125 3.9103 0 9.7098 14.888 17.576 33.25 17.576s33.25-7.8663 33.25-17.576c0-1.5453-0.38566-3.0468-1.0938-4.4746 0.49841-0.9126 0.78125-1.8698 0.78125-2.842 0-4.6657-6.0454-8.7677-15.188-11.126-3.549-5.7575-10.74-9.6951-19.031-9.6951z" color="#000000" fill="url(#d)" stroke="#000" stroke-width="2"/>
<path transform="translate(4.1935 25.161)" d="m453.74-409.5c0 6.4848-5.257 11.742-11.742 11.742-6.4848 0-11.742-5.257-11.742-11.742 0-6.4848 5.257-11.742 11.742-11.742 6.4848 0 11.742 5.257 11.742 11.742z" color="#000000"/>
<rect x="431.94" y="-359.03" width="13.309" height="20.28" color="#000000" fill="url(#e)" stroke="#000" stroke-width="2.2669"/>
<rect x="445.41" y="-359.4" width="13.309" height="20.28" color="#000000" fill="url(#f)" stroke="#000" stroke-width="2.2669"/>
<path d="m419.35-365.88c19.335 10.792 37.417 9.0497 54.516-2.5161" fill="none" stroke="#000" stroke-width="4"/>
</g>
</g>
<path d="m282.22 142.13c-4.0468 0-7.7473 1.2724-10.625 3.4062-2.3334-1.1111-5.009-1.75-7.8438-1.75-9.1528 0-16.562 6.5814-16.562 14.688 0 1.5884 0.28547 3.1298 0.8125 4.5625-2.5821 2.5881-4.1562 5.9623-4.1562 9.6875 0 1.2599 0.19413 2.4894 0.53125 3.6562-1.484 0.42672-2.8576 1.0229-4.125 1.7812-2.4716 1.1307-4.6046 2.754-6.1562 4.7812-3e-3 1e-3 3e-3 0.03 0 0.0312-1.5452 0.57907-3.0006 1.2208-4.375 1.9375-2.6184-6.0616-7.6159-10.459-13.562-11.5-3.0795-2.7789-6.9065-4.4375-11.094-4.4375-3.9578 0-7.6348 1.4602-10.625 3.9688-2.7716-1.9897-6.0116-3.1562-9.5-3.1562-9.5032 0-17.295 8.5333-18.156 19.406-1.6878-0.60376-3.4874-0.9375-5.3438-0.9375-5.6045 0-10.621 2.9656-13.969 7.625-0.9241-0.0458-1.8693-0.0937-2.8125-0.0937-2.9405 0-5.7741 0.22965-8.5 0.65625-3.1535-6.4016-9.0516-10.719-15.812-10.719-7.6709 0-14.238 5.5491-16.938 13.406-2.8698-7.4025-9.2036-12.562-16.594-12.562-5.5748 0-10.559 2.9458-13.906 7.5625-2.1766-1.0743-4.5524-1.6875-7.0625-1.6875-7.5378 0-14.029 5.359-16.812 13-2.7026-1.8539-5.8298-2.9375-9.1875-2.9375-6.7731 0-12.694 4.3292-15.844 10.75-1.3128-0.67385-2.7875-1.0625-4.3125-1.0625-5.9085 0-10.688 5.6072-10.688 12.531 0 6.9241 4.779 12.531 10.688 12.531 1.7933 0 3.5154-0.49235 5-1.4062 0.0635 0.11019 0.15353 0.20378 0.21875 0.3125 1.4002 4.0233 4.5337 6.9926 8.3125 7.6562 2.0513 0.93549 4.2914 1.4688 6.625 1.4688 3.2805 0 6.3397-1.0369 9-2.8125 1.2883 5.2288 5.4045 9.0625 10.281 9.0625 0.78267 0 1.5467-0.0945 2.2812-0.28125 2.3148 1.119 4.8858 1.75 7.5938 1.75 2.2923 0 4.4763-0.46536 6.5-1.2812 1.8866 1.965 4.3684 3.1562 7.0938 3.1562 3.3957 0 6.4152-1.8587 8.375-4.75 4.4026 7.9211 16.109 13.738 30.156 14.375 1.8452 3.7681 5.3081 6.3125 9.2812 6.3125 3.5623 0 6.7118-2.0496 8.6562-5.1875 1.0118 1.0776 2.1471 2.1147 3.4375 3.0625 0.82912 5.957 5.2448 10.5 10.562 10.5 2.8953 0 5.5114-1.3419 7.4375-3.5312 0.0918 0.0143 0.18915 0.0175 0.28125 0.0312 1.6111 4.5337 5.4227 7.7188 9.875 7.7188 1.2786 0 2.5196-0.26791 3.6562-0.75 6.3336 4.3415 15.516 7.0625 25.719 7.0625 13.527 0 25.215-4.79 30.906-11.781 0.77591-0.033 1.5515-0.0922 2.3125-0.15625 2.1397 0.91781 4.5095 1.4688 7.0312 1.4688 6.9133 0 12.827-3.864 15.312-9.3438 0.41488-0.32129 0.80258-0.63275 1.1875-0.96875 0.90662 0.13994 1.8309 0.25 2.7812 0.25 1.4354 0 2.828-0.1875 4.1562-0.5 1.8452 3.7681 5.3081 6.3125 9.2812 6.3125 4.3168 0 8.0279-2.9979 9.7188-7.3125 0.92571 0.14206 1.8722 0.21875 2.8438 0.21875 3.1618 0 6.1112-0.79556 8.625-2.1562 1.913 2.1009 4.4839 3.375 7.3125 3.375 4.5404 0 8.4155-3.3229 9.9688-8 0.44648 0.0466 0.88797 0.0937 1.3438 0.0937 1.1232 0 2.2207-0.16266 3.2812-0.4375 1.7821 1.5556 3.982 2.4688 6.375 2.4688 4.4103 0 8.2068-3.1282 9.8438-7.5938 2.5109 1.3951 5.4687 2.1875 8.625 2.1875 6.4409 0 12.007-3.3298 14.75-8.2188 1.9165 0.70539 4.0248 1.0938 6.2188 1.0938 9.1528 0 16.562-6.7561 16.562-15.094 0-0.98763-0.11373-1.9403-0.3125-2.875 1.2756-2.1391 2-4.582 2-7.1875 0-4.8666-2.5439-9.1767-6.4688-11.938 0.38109-1.2705 0.59375-2.6194 0.59375-4 0-8.3376-7.4409-15.094-16.594-15.094-0.80964 0-1.5964 0.0853-2.375 0.1875 0.31963-1.1381 0.5-2.3056 0.5-3.5312 0-8.106-7.4097-14.688-16.562-14.688-0.26461 0-0.51967 0.0204-0.78125 0.0312-1.8483-3.7543-5.317-6.2812-9.2812-6.2812-1.5489 0-3.0148 0.3998-4.3438 1.0938-4.1026-7.0298-13.999-12.339-26.125-13.75 0.0168-0.27095 0.0625-0.53783 0.0625-0.8125 0-8.106-7.4097-14.656-16.562-14.656zm41.719 54.688c0.61799 1.3178 1.4668 2.5341 2.4688 3.625-0.91983-0.1218-1.8671-0.20563-2.8125-0.28125 0.24469-1.0034 0.34375-2.0255 0.34375-3.0938 0-0.0843 2e-3 -0.16605 0-0.25zm-36.562 2.9688c1.2278 0.10758 2.4842 0.16176 3.75 0.1875 0.16029 0.70128 0.41869 1.3701 0.6875 2.0312-1.4295-0.69232-2.9651-1.2953-4.5625-1.8438 0.0394-0.12481 0.0892-0.24887 0.125-0.375z" color="#000000" fill="url(#j)"/>
<path d="m282.65 142.23c-4.0468 0-7.7473 1.2724-10.625 3.4062-2.3334-1.1111-5.009-1.75-7.8438-1.75-1.3962 0-2.7363 0.18041-4.0312 0.46875 2.9248 2.2275 5.6841 4.5563 8.2188 6.9375 11.299 1.2459 20.062 10.259 20.062 21.219 0 2.3891-0.41888 4.6983-1.1875 6.8438 1.6449 5.0104 2.5312 10.165 2.5312 15.438 0 0.02 3e-5 0.0415 0 0.0625 4.4507 3.9039 7.2188 9.4502 7.2188 15.625 0 11.705-10.002 21.235-22.406 21.406-0.37775 0.4358-0.76566 0.8806-1.1562 1.3124 0.96783 2.1442 1.5 4.4562 1.5 6.8438 0 11.812-12.82 21.375-28.656 21.375-1.409 0-2.8017-0.0723-4.1562-0.2188-2.4304 10.342-16.842 18.281-34.25 18.281-6.0764 0-11.787-0.9562-16.75-2.6563-3.3093 3.8056-8.0433 6.5863-13.469 7.7188 6.0946 3.3056 14.066 5.2812 22.812 5.2812 13.527 0 25.215-4.79 30.906-11.781 0.77591-0.033 1.5515-0.0919 2.3125-0.1562 2.1397 0.9177 4.5095 1.4687 7.0312 1.4687 6.9133 0 12.827-3.8639 15.312-9.3437 0.41488-0.3214 0.80258-0.6328 1.1875-0.9688 0.90662 0.1399 1.8309 0.25 2.7812 0.25 1.4354 0 2.828-0.1875 4.1562-0.5 1.8452 3.7681 5.3081 6.3125 9.2812 6.3125 4.3168 0 8.0279-2.998 9.7188-7.3125 0.92571 0.142 1.8722 0.2188 2.8438 0.2188 3.1618 0 6.1112-0.7956 8.625-2.1563 1.913 2.1008 4.4839 3.375 7.3125 3.375 4.5404 0 8.4155-3.323 9.9688-8 0.44648 0.047 0.88797 0.0937 1.3438 0.0937 1.1232 0 2.2207-0.1626 3.2812-0.4374 1.7821 1.5555 3.982 2.4687 6.375 2.4687 4.4103 0 8.2068-3.1283 9.8438-7.5937 2.5109 1.395 5.4687 2.1874 8.625 2.1874 6.4409 0 12.007-3.3298 14.75-8.2187 1.9165 0.7054 4.0248 1.0937 6.2188 1.0937 9.1528 0 16.562-6.756 16.562-15.094 0-0.9876-0.11373-1.9403-0.3125-2.875 1.2756-2.1391 2-4.582 2-7.1875 0-4.8666-2.5439-9.1767-6.4688-11.938 0.38109-1.2705 0.59375-2.6193 0.59375-4 0-8.3376-7.4409-15.094-16.594-15.094-0.80964 0-1.5964 0.085-2.375 0.1874 0.31963-1.1381 0.5-2.3055 0.5-3.5312 0-8.106-7.4097-14.688-16.562-14.688-0.26461 0-0.51967 0.0205-0.78125 0.0312-1.8483-3.7543-5.317-6.2812-9.2812-6.2812-1.5489 0-3.0148 0.3998-4.3438 1.0938-4.1026-7.0298-13.999-12.339-26.125-13.75 0.0168-0.27095 0.0625-0.53783 0.0625-0.8125 0-8.106-7.4097-14.656-16.562-14.656zm41.719 54.688c0.61799 1.3179 1.4668 2.5341 2.4688 3.625-0.91983-0.1218-1.8671-0.2057-2.8125-0.2812 0.24469-1.0035 0.34375-2.0256 0.34375-3.0938 0-0.084 2e-3 -0.166 0-0.25z" color="#000000" fill="url(#i)"/>
<path d="m170.42 256.54c1.4511 0 2.8054 0.42148 3.9542 1.133 0.0335-3.6e-4 0.0664 0 0.1 0 4.0244 0 7.3183 3.1566 7.5197 7.131 7e-3 0.1282 0 0.25894 0 0.38876 0 1.089-0.23968 2.1205-0.65534 3.0545 0.8016 1.1959 1.2662 2.6274 1.2662 4.1764 0 0.12982 7e-3 0.26056 0 0.38876-0.20146 3.9744-3.4953 7.131-7.5197 7.131-0.39763 0-0.78518-0.0298-1.1663-0.0889-1.1802 0.77023-2.5947 1.2218-4.1097 1.2218-1.4674 0-2.8411-0.41758-3.9987-1.1441-0.14723 9e-3 -0.2948 0.0111-0.4443 0.0111-4.1543 0-7.5308-3.3655-7.5308-7.5197 0-1.0942 0.24469-2.1298 0.66645-3.0656-0.80373-1.193-1.2774-2.6176-1.2774-4.1653 0-4.1543 3.3766-7.5197 7.5308-7.5197 0.50712 0 0.9993 0.0494 1.4773 0.1444 1.1985-0.80636 2.6345-1.2774 4.1875-1.2774z" color="#000000" fill="#734b02" stroke="#000" stroke-width="1.0663"/>
<path d="m172.32 258.94c1.4511 0 2.8054 0.42148 3.9542 1.133 0.0335-3.6e-4 0.0663 0 0.1 0 4.0244 0 7.3183 3.1566 7.5197 7.131 7e-3 0.1282 0 0.25894 0 0.38876 0 1.089-0.23968 2.1205-0.65534 3.0545 0.8016 1.1959 1.2662 2.6274 1.2662 4.1764 0 0.12982 7e-3 0.26056 0 0.38876-0.20146 3.9744-3.4953 7.131-7.5197 7.131-0.39763 0-0.78518-0.0299-1.1663-0.0889-1.1802 0.77023-2.5947 1.2218-4.1097 1.2218-1.4674 0-2.8411-0.41758-3.9987-1.1441-0.14723 9e-3 -0.2948 0.0111-0.4443 0.0111-4.1543 0-7.5308-3.3654-7.5308-7.5197 0-1.0942 0.24468-2.1298 0.66644-3.0656-0.80373-1.193-1.2774-2.6176-1.2774-4.1653 0-4.1543 3.3766-7.5197 7.5308-7.5197 0.50712 0 0.9993 0.0494 1.4773 0.14439 1.1985-0.80635 2.6345-1.2774 4.1875-1.2774z" color="#000000" fill="#3b2906"/>
<path d="m253.52 256c1.4511 0 2.8054 0.42148 3.9542 1.133 0.0335-3.6e-4 0.0664 0 0.1 0 4.0244 0 7.3183 3.1566 7.5197 7.131 7e-3 0.1282 0 0.25894 0 0.38876 0 1.089-0.23968 2.1205-0.65534 3.0545 0.8016 1.1959 1.2662 2.6274 1.2662 4.1764 0 0.12982 7e-3 0.26056 0 0.38876-0.20146 3.9744-3.4953 7.131-7.5197 7.131-0.39763 0-0.78518-0.0298-1.1663-0.0889-1.1802 0.77023-2.5947 1.2218-4.1097 1.2218-1.4674 0-2.8411-0.41758-3.9987-1.1441-0.14723 9e-3 -0.2948 0.0111-0.4443 0.0111-4.1543 0-7.5308-3.3655-7.5308-7.5197 0-1.0942 0.24469-2.1298 0.66645-3.0656-0.80373-1.193-1.2774-2.6176-1.2774-4.1653 0-4.1543 3.3766-7.5197 7.5308-7.5197 0.50712 0 0.9993 0.0494 1.4773 0.1444 1.1985-0.80636 2.6345-1.2774 4.1875-1.2774z" color="#000000" fill="#734b02" stroke="#000" stroke-width="1.0663"/>
<path d="m255.42 258.4c1.4511 0 2.8054 0.42148 3.9542 1.133 0.0335-3.6e-4 0.0663 0 0.1 0 4.0244 0 7.3183 3.1566 7.5197 7.131 7e-3 0.1282 0 0.25894 0 0.38876 0 1.089-0.23968 2.1205-0.65534 3.0545 0.8016 1.1959 1.2662 2.6274 1.2662 4.1764 0 0.12982 7e-3 0.26056 0 0.38876-0.20146 3.9744-3.4953 7.131-7.5197 7.131-0.39763 0-0.78518-0.0299-1.1663-0.0889-1.1802 0.77023-2.5947 1.2218-4.1097 1.2218-1.4674 0-2.8411-0.41758-3.9987-1.1441-0.14723 9e-3 -0.2948 0.0111-0.4443 0.0111-4.1543 0-7.5308-3.3654-7.5308-7.5197 0-1.0942 0.24468-2.1298 0.66644-3.0656-0.80373-1.193-1.2774-2.6176-1.2774-4.1653 0-4.1543 3.3766-7.5197 7.5308-7.5197 0.50712 0 0.9993 0.0494 1.4773 0.14439 1.1985-0.80635 2.6345-1.2774 4.1875-1.2774z" color="#000000" fill="#3b2906"/>
<path d="m362.45 209.41c2.2387 0 4.328 0.65023 6.1003 1.7478 0.0517-5.5e-4 0.10244 0 0.15427 0 6.2086 0 11.29 4.8697 11.601 11.001 0.0108 0.19778 0 0.39947 0 0.59975 0 1.68-0.36976 3.2714-1.011 4.7123 1.2366 1.845 1.9535 4.0533 1.9535 6.443 0 0.20027 0.0108 0.40197 0 0.59975-0.3108 6.1314-5.3923 11.001-11.601 11.001-0.61344 0-1.2113-0.046-1.7992-0.13714-1.8208 1.1882-4.003 1.8849-6.3402 1.8849-2.2637 0-4.3831-0.64421-6.1689-1.765-0.22714 0.0139-0.4548 0.0171-0.68543 0.0171-6.4089 0-11.618-5.192-11.618-11.601 0-1.6881 0.37749-3.2856 1.0282-4.7295-1.2399-1.8405-1.9706-4.0382-1.9706-6.4259 0-6.4089 5.2091-11.601 11.618-11.601 0.78235 0 1.5416 0.0762 2.279 0.22277 1.849-1.244 4.0643-1.9706 6.4602-1.9706z" color="#000000" fill="#734b02" stroke="#000" stroke-width="1.645"/>
<path d="m365.39 213.12c2.2387 0 4.328 0.65023 6.1003 1.7478 0.0517-5.6e-4 0.10228 0 0.15427 0 6.2086 0 11.29 4.8697 11.601 11.001 0.0108 0.19778 0 0.39948 0 0.59975 0 1.68-0.36976 3.2714-1.011 4.7123 1.2366 1.845 1.9535 4.0534 1.9535 6.443 0 0.20028 0.0108 0.40197 0 0.59975-0.3108 6.1314-5.3923 11.001-11.601 11.001-0.61343 0-1.2113-0.0461-1.7992-0.13715-1.8208 1.1883-4.003 1.8849-6.3402 1.8849-2.2637 0-4.3831-0.64422-6.1689-1.765-0.22713 0.0139-0.45479 0.0171-0.68543 0.0171-6.4089 0-11.618-5.192-11.618-11.601 0-1.6881 0.37747-3.2856 1.0281-4.7294-1.2399-1.8405-1.9706-4.0382-1.9706-6.4259 0-6.4089 5.2091-11.601 11.618-11.601 0.78235 0 1.5416 0.0762 2.2791 0.22275 1.849-1.244 4.0643-1.9706 6.4602-1.9706z" color="#000000" fill="#3b2906"/>
<path d="m312.21 188.94c1.5388 0 2.9748 0.44693 4.193 1.2014 0.0355-3.8e-4 0.0704 0 0.10604 0 4.2674 0 7.7601 3.3472 7.9738 7.5615 7e-3 0.13595 0 0.27458 0 0.41224 0 1.1547-0.25415 2.2486-0.6949 3.239 0.85 1.2681 1.3427 2.786 1.3427 4.4286 0 0.13765 7e-3 0.27629 0 0.41223-0.21362 4.2144-3.7063 7.5615-7.9738 7.5615-0.42164 0-0.83259-0.0316-1.2367-0.0943-1.2515 0.81673-2.7514 1.2956-4.3579 1.2956-1.556 0-3.0127-0.44279-4.2401-1.2131-0.15612 0.01-0.3126 0.0118-0.47113 0.0118-4.4051 0-7.9855-3.5687-7.9855-7.9738 0-1.1603 0.25946-2.2584 0.70669-3.2508-0.85227-1.265-1.3545-2.7756-1.3545-4.4168 0-4.4051 3.5804-7.9738 7.9855-7.9738 0.53774 0 1.0596 0.0524 1.5665 0.15312 1.2709-0.85505 2.7935-1.3545 4.4403-1.3545z" color="#000000" fill="#734b02" stroke="#000" stroke-width="1.1307"/>
<path d="m315.9 193.16c1.5388 0 2.9748 0.44693 4.193 1.2014 0.0355-3.9e-4 0.0703 0 0.10604 0 4.2674 0 7.7601 3.3472 7.9738 7.5615 7e-3 0.13595 0 0.27458 0 0.41224 0 1.1547-0.25415 2.2486-0.69491 3.239 0.85 1.2681 1.3427 2.786 1.3427 4.4286 0 0.13766 7e-3 0.27629 0 0.41223-0.21363 4.2144-3.7063 7.5615-7.9738 7.5615-0.42164 0-0.83259-0.0317-1.2367-0.0943-1.2515 0.81674-2.7514 1.2956-4.3579 1.2956-1.556 0-3.0127-0.4428-4.2401-1.2132-0.15611 0.01-0.31259 0.0118-0.47112 0.0118-4.4051 0-7.9855-3.5687-7.9855-7.9738 0-1.1603 0.25945-2.2583 0.70668-3.2507-0.85226-1.265-1.3545-2.7756-1.3545-4.4168 0-4.4051 3.5804-7.9738 7.9855-7.9738 0.53774 0 1.0596 0.0524 1.5665 0.1531 1.2709-0.85503 2.7935-1.3545 4.4404-1.3545z" color="#000000" fill="#3b2906" opacity=".80247"/>
<path d="m40.49 222.45c1.4511 0 2.8054 0.42148 3.9542 1.133 0.0335-3.6e-4 0.0664 0 0.1 0 4.0244 0 7.3183 3.1566 7.5197 7.131 7e-3 0.1282 0 0.25894 0 0.38876 0 1.089-0.23968 2.1205-0.65534 3.0545 0.8016 1.1959 1.2662 2.6274 1.2662 4.1764 0 0.12982 7e-3 0.26056 0 0.38876-0.20146 3.9744-3.4953 7.131-7.5197 7.131-0.39763 0-0.78518-0.0298-1.1663-0.0889-1.1802 0.77023-2.5947 1.2218-4.1097 1.2218-1.4674 0-2.8411-0.41758-3.9987-1.1441-0.14723 9e-3 -0.2948 0.0111-0.4443 0.0111-4.1543 0-7.5308-3.3655-7.5308-7.5197 0-1.0942 0.24469-2.1298 0.66645-3.0656-0.80373-1.193-1.2774-2.6176-1.2774-4.1653 0-4.1543 3.3766-7.5197 7.5308-7.5197 0.50712 0 0.9993 0.0494 1.4773 0.1444 1.1985-0.80636 2.6345-1.2774 4.1875-1.2774z" color="#000000" fill="#734b02" stroke="#000" stroke-width="1.0663"/>
<path d="m42.39 224.85c1.4511 0 2.8054 0.42148 3.9542 1.133 0.0335-3.6e-4 0.0663 0 0.1 0 4.0244 0 7.3183 3.1566 7.5197 7.131 7e-3 0.1282 0 0.25894 0 0.38876 0 1.089-0.23968 2.1205-0.65534 3.0545 0.8016 1.1959 1.2662 2.6274 1.2662 4.1764 0 0.12982 7e-3 0.26056 0 0.38876-0.20146 3.9744-3.4953 7.131-7.5197 7.131-0.39763 0-0.78518-0.0299-1.1663-0.0889-1.1802 0.77023-2.5947 1.2218-4.1097 1.2218-1.4674 0-2.8411-0.41758-3.9987-1.1441-0.14723 9e-3 -0.2948 0.0111-0.4443 0.0111-4.1543 0-7.5308-3.3654-7.5308-7.5197 0-1.0942 0.24468-2.1298 0.66644-3.0656-0.80373-1.193-1.2774-2.6176-1.2774-4.1653 0-4.1543 3.3766-7.5197 7.5308-7.5197 0.50712 0 0.9993 0.0494 1.4773 0.14439 1.1985-0.80635 2.6345-1.2774 4.1875-1.2774z" color="#000000" fill="#3b2906"/>
<path d="m117.65 227.48c1.4511 0 2.8054 0.42148 3.9542 1.133 0.0335-3.6e-4 0.0664 0 0.1 0 4.0244 0 7.3183 3.1566 7.5197 7.131 7e-3 0.1282 0 0.25894 0 0.38876 0 1.089-0.23968 2.1205-0.65534 3.0545 0.8016 1.1959 1.2662 2.6274 1.2662 4.1764 0 0.12982 7e-3 0.26056 0 0.38876-0.20146 3.9744-3.4953 7.131-7.5197 7.131-0.39763 0-0.78518-0.0298-1.1663-0.0889-1.1802 0.77023-2.5947 1.2218-4.1097 1.2218-1.4674 0-2.8411-0.41758-3.9987-1.1441-0.14723 9e-3 -0.2948 0.0111-0.4443 0.0111-4.1543 0-7.5308-3.3655-7.5308-7.5197 0-1.0942 0.24469-2.1298 0.66645-3.0656-0.80373-1.193-1.2774-2.6176-1.2774-4.1653 0-4.1543 3.3766-7.5197 7.5308-7.5197 0.50712 0 0.9993 0.0494 1.4773 0.1444 1.1985-0.80636 2.6345-1.2774 4.1875-1.2774z" color="#000000" fill="#734b02" stroke="#000" stroke-width="1.0663"/>
<path d="m119.55 229.88c1.4511 0 2.8054 0.42148 3.9542 1.133 0.0335-3.6e-4 0.0663 0 0.1 0 4.0244 0 7.3183 3.1566 7.5197 7.131 7e-3 0.1282 0 0.25894 0 0.38876 0 1.089-0.23968 2.1205-0.65534 3.0545 0.8016 1.1959 1.2662 2.6274 1.2662 4.1764 0 0.12982 7e-3 0.26056 0 0.38876-0.20146 3.9744-3.4953 7.131-7.5197 7.131-0.39763 0-0.78518-0.0299-1.1663-0.0889-1.1802 0.77023-2.5947 1.2218-4.1097 1.2218-1.4674 0-2.8411-0.41758-3.9987-1.1441-0.14723 9e-3 -0.2948 0.0111-0.4443 0.0111-4.1543 0-7.5308-3.3654-7.5308-7.5197 0-1.0942 0.24468-2.1298 0.66644-3.0656-0.80373-1.193-1.2774-2.6176-1.2774-4.1653 0-4.1543 3.3766-7.5197 7.5308-7.5197 0.50712 0 0.9993 0.0494 1.4773 0.14439 1.1985-0.80635 2.6345-1.2774 4.1875-1.2774z" color="#000000" fill="#3b2906" fill-opacity=".50698"/>
<path d="m282.04 218.15c1.463 0 2.8283 0.26434 3.9865 0.71057 0.0338-2.3e-4 0.0669 0 0.10082 0 4.0573 0 7.378 1.9797 7.5811 4.4724 7e-3 0.0804 0 0.1624 0 0.24382 0 0.68297-0.24163 1.3299-0.66068 1.9157 0.80814 0.75006 1.2766 1.6478 1.2766 2.6193 0 0.0814 7e-3 0.16342 0 0.24382-0.20311 2.4926-3.5238 4.4724-7.5811 4.4724-0.40087 0-0.79158-0.0187-1.1758-0.0557-1.1898 0.48307-2.6159 0.7663-4.1433 0.7663-1.4793 0-2.8643-0.2619-4.0313-0.71753-0.14843 6e-3 -0.29721 7e-3 -0.44793 7e-3 -4.1882 0-7.5923-2.1108-7.5923-4.7162 0-0.68629 0.24669-1.3357 0.67189-1.9227-0.81029-0.74823-1.2878-1.6417-1.2878-2.6124 0-2.6055 3.4041-4.7162 7.5923-4.7162 0.51126 0 1.0074 0.031 1.4893 0.0906 1.2083-0.50573 2.656-0.80113 4.2217-0.80113z" color="#000000" fill="#734b02" stroke="#000" stroke-width=".8479"/>
<path d="m283.96 219.65c1.463 0 2.8283 0.26435 3.9865 0.71057 0.0338-2.2e-4 0.0668 0 0.10081 0 4.0573 0 7.378 1.9797 7.5811 4.4724 7e-3 0.0804 0 0.1624 0 0.24382 0 0.68297-0.24164 1.3299-0.66069 1.9157 0.80814 0.75006 1.2766 1.6478 1.2766 2.6194 0 0.0814 7e-3 0.16342 0 0.24382-0.2031 2.4926-3.5238 4.4724-7.5811 4.4724-0.40088 0-0.79159-0.0187-1.1758-0.0558-1.1898 0.48308-2.6159 0.7663-4.1433 0.7663-1.4793 0-2.8643-0.26189-4.0313-0.71753-0.14843 6e-3 -0.2972 7e-3 -0.44792 7e-3 -4.1882 0-7.5923-2.1107-7.5923-4.7162 0-0.68628 0.24668-1.3357 0.67188-1.9227-0.81029-0.74823-1.2878-1.6417-1.2878-2.6124 0-2.6055 3.4041-4.7162 7.5923-4.7162 0.51126 0 1.0074 0.031 1.4894 0.0906 1.2083-0.50573 2.656-0.80113 4.2217-0.80113z" color="#000000" fill="#3b2906" fill-opacity=".50698"/>
<path d="m90.753 188c1.463 0 2.8283 0.26434 3.9865 0.71057 0.0338-2.3e-4 0.0669 0 0.10082 0 4.0573 0 7.378 1.9797 7.5811 4.4724 7e-3 0.0804 0 0.1624 0 0.24382 0 0.68297-0.24163 1.3299-0.66068 1.9157 0.80814 0.75006 1.2766 1.6478 1.2766 2.6193 0 0.0814 7e-3 0.16342 0 0.24382-0.20311 2.4926-3.5238 4.4724-7.5811 4.4724-0.40087 0-0.79158-0.0187-1.1758-0.0557-1.1898 0.48307-2.6159 0.7663-4.1433 0.7663-1.4793 0-2.8643-0.2619-4.0313-0.71753-0.14843 6e-3 -0.29721 7e-3 -0.44793 7e-3 -4.1882 0-7.5923-2.1108-7.5923-4.7162 0-0.68629 0.24669-1.3357 0.67189-1.9227-0.81029-0.74823-1.2878-1.6417-1.2878-2.6124 0-2.6055 3.4041-4.7162 7.5923-4.7162 0.51126 0 1.0074 0.031 1.4893 0.0906 1.2083-0.50573 2.656-0.80113 4.2217-0.80113z" color="#000000" fill="#734b02" stroke="#000" stroke-width=".8479"/>
<path d="m92.668 189.5c1.463 0 2.8283 0.26435 3.9865 0.71057 0.0338-2.2e-4 0.0668 0 0.10081 0 4.0573 0 7.378 1.9797 7.5811 4.4724 7e-3 0.0804 0 0.1624 0 0.24382 0 0.68297-0.24164 1.3299-0.66069 1.9157 0.80814 0.75006 1.2766 1.6478 1.2766 2.6194 0 0.0814 7e-3 0.16342 0 0.24382-0.2031 2.4926-3.5238 4.4724-7.5811 4.4724-0.40088 0-0.79159-0.0187-1.1758-0.0558-1.1898 0.48308-2.6159 0.7663-4.1433 0.7663-1.4793 0-2.8643-0.26189-4.0313-0.71753-0.14843 6e-3 -0.2972 7e-3 -0.44792 7e-3 -4.1882 0-7.5923-2.1107-7.5923-4.7162 0-0.68628 0.24668-1.3357 0.67188-1.9227-0.81029-0.74823-1.2878-1.6417-1.2878-2.6124 0-2.6055 3.4041-4.7162 7.5923-4.7162 0.51126 0 1.0074 0.031 1.4894 0.0906 1.2083-0.50573 2.656-0.80113 4.2217-0.80113z" color="#000000" fill="#3b2906" fill-opacity=".50698"/>
<path d="m215.58 204.51c2.2541 0 4.3577 0.40728 6.1422 1.0948 0.0521-3.6e-4 0.10307 0 0.15534 0 6.2512 0 11.368 3.0503 11.68 6.8908 0.0108 0.12388 0 0.25022 0 0.37567 0 1.0523-0.37229 2.0491-1.0179 2.9517 1.2451 1.1556 1.9669 2.5389 1.9669 4.0357 0 0.12542 0.0108 0.25179 0 0.37567-0.31294 3.8405-5.4293 6.8908-11.68 6.8908-0.61763 0-1.2196-0.0288-1.8116-0.0858-1.8332 0.74428-4.0304 1.1807-6.3837 1.1807-2.2793 0-4.4131-0.40352-6.2112-1.1055-0.22869 9e-3 -0.45793 0.0108-0.69015 0.0108-6.4529 0-11.698-3.2521-11.698-7.2665 0-1.0574 0.38009-2.058 1.0352-2.9624-1.2484-1.1528-1.9841-2.5294-1.9841-4.025 0-4.0144 5.2449-7.2665 11.698-7.2665 0.78772 0 1.5522 0.0478 2.2947 0.1396 1.8617-0.7792 4.0922-1.2343 6.5045-1.2343z" color="#000000" fill="#734b02" stroke="#000" stroke-width="1.3064"/>
<path d="m218.54 206.83c2.2541 0 4.3577 0.40729 6.1422 1.0948 0.0521-3.4e-4 0.10292 0 0.15532 0 6.2512 0 11.368 3.0503 11.68 6.8908 0.0108 0.12387 0 0.25022 0 0.37566 0 1.0523-0.37231 2.0491-1.018 2.9517 1.2451 1.1556 1.9669 2.5389 1.9669 4.0357 0 0.12542 0.0108 0.25179 0 0.37567-0.31293 3.8405-5.4293 6.8908-11.68 6.8908-0.61765 0-1.2196-0.0288-1.8116-0.086-1.8332 0.7443-4.0304 1.1807-6.3837 1.1807-2.2793 0-4.4131-0.4035-6.2112-1.1055-0.22869 9e-3 -0.45791 0.0108-0.69013 0.0108-6.4529 0-11.698-3.2521-11.698-7.2665 0-1.0574 0.38007-2.058 1.0352-2.9624-1.2484-1.1528-1.9841-2.5294-1.9841-4.025 0-4.0143 5.2449-7.2665 11.698-7.2665 0.78772 0 1.5522 0.0478 2.2947 0.13959 1.8617-0.7792 4.0922-1.2343 6.5045-1.2343z" color="#000000" fill="#3b2906" fill-opacity=".50698"/>
<g transform="translate(-584.96 417.99)" stroke="#000">
<path transform="translate(601.35 243.22)" d="m114.67-476.59c0 9.2641-12.151 16.774-27.141 16.774s-27.141-7.51-27.141-16.774c0-9.2641 12.151-16.774 27.141-16.774s27.141 7.51 27.141 16.774z" color="#000000" fill="url(#b)" stroke-linecap="round" stroke-linejoin="round" stroke-width="2"/>
<g transform="translate(-34.387 -68.774)" stroke-width=".8386">
<path d="m729.94-160.36c4.9214 5.4305 10.581 8.2435 10.581 8.2435s-3.0021 13.341-10.266 16.989c0 0-14.996-28.88-6.4957-35.667 2.9e-4 8.6e-4 1.8366 5.6415 6.1804 10.435z" fill="url(#a)"/>
<path d="m723.67-171.11c0.30942 0.44389 0.27062 1.0339-0.0878 1.3199-1.7044 1.3596-2.3333 3.7744-2.203 6.9403 0.13336 3.1434 1.0541 6.9252 2.2935 10.635 1.4217 4.267 3.2515 8.4481 4.7245 11.554 0.90357 1.9056 1.6678 3.4002 2.1243 4.2708 4.6626-2.8518 7.5242-10.32 8.6102-13.998 0.38637-1.2814 0.56483-2.0759 0.56425-2.0776 0.11117-0.48974 0.57294-0.73116 1.0311-0.53772 0.46035 0.19283 0.74424 0.74766 0.63335 1.2383-0.0601 0.0608-2.9333 13.538-10.66 17.519-0.39219 0.1969-0.89902-9e-3 -1.1512-0.46829-0.0163-0.0343-4.5385-8.2668-7.4726-17.063-1.2735-3.832-2.2543-7.7696-2.4062-11.246-0.15562-3.4586 0.5451-6.5689 2.7926-8.367 0.0764-0.0606 0.16111-0.10354 0.25039-0.12793 0.32959-0.09 0.71492 0.0628 0.95713 0.40974z"/>
</g>
<g transform="matrix(.88577 .46412 -.46412 .88577 -50.391 -427.81)" stroke-width=".8386">
<path d="m729.94-160.36c4.9214 5.4305 10.581 8.2435 10.581 8.2435s-3.0021 13.341-10.266 16.989c0 0-14.996-28.88-6.4957-35.667 2.9e-4 8.6e-4 1.8366 5.6415 6.1804 10.435z" fill="url(#a)"/>
<path d="m723.67-171.11c0.30942 0.44389 0.27062 1.0339-0.0878 1.3199-1.7044 1.3596-2.3333 3.7744-2.203 6.9403 0.13336 3.1434 1.0541 6.9252 2.2935 10.635 1.4217 4.267 3.2515 8.4481 4.7245 11.554 0.90357 1.9056 1.6678 3.4002 2.1243 4.2708 4.6626-2.8518 7.5242-10.32 8.6102-13.998 0.38637-1.2814 0.56483-2.0759 0.56425-2.0776 0.11117-0.48974 0.57294-0.73116 1.0311-0.53772 0.46035 0.19283 0.74424 0.74766 0.63335 1.2383-0.0601 0.0608-2.9333 13.538-10.66 17.519-0.39219 0.1969-0.89902-9e-3 -1.1512-0.46829-0.0163-0.0343-4.5385-8.2668-7.4726-17.063-1.2735-3.832-2.2543-7.7696-2.4062-11.246-0.15562-3.4586 0.5451-6.5689 2.7926-8.367 0.0764-0.0606 0.16111-0.10354 0.25039-0.12793 0.32959-0.09 0.71492 0.0628 0.95713 0.40974z"/>
</g>
<g transform="matrix(.92703 .37499 -.37499 .92703 -54.113 -354.25)" stroke-width=".8386">
<path d="m729.94-160.36c4.9214 5.4305 10.581 8.2435 10.581 8.2435s-3.0021 13.341-10.266 16.989c0 0-14.996-28.88-6.4957-35.667 2.9e-4 8.6e-4 1.8366 5.6415 6.1804 10.435z" fill="url(#a)"/>
<path d="m723.67-171.11c0.30942 0.44389 0.27062 1.0339-0.0878 1.3199-1.7044 1.3596-2.3333 3.7744-2.203 6.9403 0.13336 3.1434 1.0541 6.9252 2.2935 10.635 1.4217 4.267 3.2515 8.4481 4.7245 11.554 0.90357 1.9056 1.6678 3.4002 2.1243 4.2708 4.6626-2.8518 7.5242-10.32 8.6102-13.998 0.38637-1.2814 0.56483-2.0759 0.56425-2.0776 0.11117-0.48974 0.57294-0.73116 1.0311-0.53772 0.46035 0.19283 0.74424 0.74766 0.63335 1.2383-0.0601 0.0608-2.9333 13.538-10.66 17.519-0.39219 0.1969-0.89902-9e-3 -1.1512-0.46829-0.0163-0.0343-4.5385-8.2668-7.4726-17.063-1.2735-3.832-2.2543-7.7696-2.4062-11.246-0.15562-3.4586 0.5451-6.5689 2.7926-8.367 0.0764-0.0606 0.16111-0.10354 0.25039-0.12793 0.32959-0.09 0.71492 0.0628 0.95713 0.40974z"/>
</g>
</g>
<g transform="matrix(-1 0 0 1 934.7 381.96)" stroke="#000">
<path transform="translate(584.86 250.95)" d="m114.67-476.59c0 9.2641-12.151 16.774-27.141 16.774s-27.141-7.51-27.141-16.774c0-9.2641 12.151-16.774 27.141-16.774s27.141 7.51 27.141 16.774z" color="#000000" fill="url(#b)" stroke-linecap="round" stroke-linejoin="round" stroke-width="2"/>
<g transform="translate(-50.882 -61.047)" stroke-width=".8386">
<path d="m729.94-160.36c4.9214 5.4305 10.581 8.2435 10.581 8.2435s-3.0021 13.341-10.266 16.989c0 0-14.996-28.88-6.4957-35.667 2.9e-4 8.6e-4 1.8366 5.6415 6.1804 10.435z" fill="url(#a)"/>
<path d="m723.67-171.11c0.30942 0.44389 0.27062 1.0339-0.0878 1.3199-1.7044 1.3596-2.3333 3.7744-2.203 6.9403 0.13336 3.1434 1.0541 6.9252 2.2935 10.635 1.4217 4.267 3.2515 8.4481 4.7245 11.554 0.90357 1.9056 1.6678 3.4002 2.1243 4.2708 4.6626-2.8518 7.5242-10.32 8.6102-13.998 0.38637-1.2814 0.56483-2.0759 0.56425-2.0776 0.11117-0.48974 0.57294-0.73116 1.0311-0.53772 0.46035 0.19283 0.74424 0.74766 0.63335 1.2383-0.0601 0.0608-2.9333 13.538-10.66 17.519-0.39219 0.1969-0.89902-9e-3 -1.1512-0.46829-0.0163-0.0343-4.5385-8.2668-7.4726-17.063-1.2735-3.832-2.2543-7.7696-2.4062-11.246-0.15562-3.4586 0.5451-6.5689 2.7926-8.367 0.0764-0.0606 0.16111-0.10354 0.25039-0.12793 0.32959-0.09 0.71492 0.0628 0.95713 0.40974z"/>
</g>
<g transform="matrix(.88577 .46412 -.46412 .88577 -66.886 -420.08)" stroke-width=".8386">
<path d="m729.94-160.36c4.9214 5.4305 10.581 8.2435 10.581 8.2435s-3.0021 13.341-10.266 16.989c0 0-14.996-28.88-6.4957-35.667 2.9e-4 8.6e-4 1.8366 5.6415 6.1804 10.435z" fill="url(#a)"/>
<path d="m723.67-171.11c0.30942 0.44389 0.27062 1.0339-0.0878 1.3199-1.7044 1.3596-2.3333 3.7744-2.203 6.9403 0.13336 3.1434 1.0541 6.9252 2.2935 10.635 1.4217 4.267 3.2515 8.4481 4.7245 11.554 0.90357 1.9056 1.6678 3.4002 2.1243 4.2708 4.6626-2.8518 7.5242-10.32 8.6102-13.998 0.38637-1.2814 0.56483-2.0759 0.56425-2.0776 0.11117-0.48974 0.57294-0.73116 1.0311-0.53772 0.46035 0.19283 0.74424 0.74766 0.63335 1.2383-0.0601 0.0608-2.9333 13.538-10.66 17.519-0.39219 0.1969-0.89902-9e-3 -1.1512-0.46829-0.0163-0.0343-4.5385-8.2668-7.4726-17.063-1.2735-3.832-2.2543-7.7696-2.4062-11.246-0.15562-3.4586 0.5451-6.5689 2.7926-8.367 0.0764-0.0606 0.16111-0.10354 0.25039-0.12793 0.32959-0.09 0.71492 0.0628 0.95713 0.40974z"/>
</g>
<g transform="matrix(.92703 .37499 -.37499 .92703 -70.608 -346.53)" stroke-width=".8386">
<path d="m729.94-160.36c4.9214 5.4305 10.581 8.2435 10.581 8.2435s-3.0021 13.341-10.266 16.989c0 0-14.996-28.88-6.4957-35.667 2.9e-4 8.6e-4 1.8366 5.6415 6.1804 10.435z" fill="url(#a)"/>
<path d="m723.67-171.11c0.30942 0.44389 0.27062 1.0339-0.0878 1.3199-1.7044 1.3596-2.3333 3.7744-2.203 6.9403 0.13336 3.1434 1.0541 6.9252 2.2935 10.635 1.4217 4.267 3.2515 8.4481 4.7245 11.554 0.90357 1.9056 1.6678 3.4002 2.1243 4.2708 4.6626-2.8518 7.5242-10.32 8.6102-13.998 0.38637-1.2814 0.56483-2.0759 0.56425-2.0776 0.11117-0.48974 0.57294-0.73116 1.0311-0.53772 0.46035 0.19283 0.74424 0.74766 0.63335 1.2383-0.0601 0.0608-2.9333 13.538-10.66 17.519-0.39219 0.1969-0.89902-9e-3 -1.1512-0.46829-0.0163-0.0343-4.5385-8.2668-7.4726-17.063-1.2735-3.832-2.2543-7.7696-2.4062-11.246-0.15562-3.4586 0.5451-6.5689 2.7926-8.367 0.0764-0.0606 0.16111-0.10354 0.25039-0.12793 0.32959-0.09 0.71492 0.0628 0.95713 0.40974z"/>
</g>
</g>
</g>
</g>
<metadata>
<rdf:RDF>
<cc:Work>
<dc:format>image/svg+xml</dc:format>
<dc:type rdf:resource="http://purl.org/dc/dcmitype/StillImage"/>
<cc:license rdf:resource="http://creativecommons.org/licenses/publicdomain/"/>
<dc:publisher>
<cc:Agent rdf:about="http://openclipart.org/">
<dc:title>Openclipart</dc:title>
</cc:Agent>
</dc:publisher>
<dc:title>Cartoon Mole</dc:title>
<dc:date>2012-02-23T16:38:51</dc:date>
<dc:description>This is a mole I made for my Android game Memory Owl HD.</dc:description>
<dc:source>https://openclipart.org/detail/168496/cartoon-mole-by-magnesus</dc:source>
<dc:creator>
<cc:Agent>
<dc:title>Magnesus</dc:title>
</cc:Agent>
</dc:creator>
<dc:subject>
<rdf:Bag>
<rdf:li>animal</rdf:li>
<rdf:li>cartoon</rdf:li>
<rdf:li>comic</rdf:li>
<rdf:li>mole</rdf:li>
</rdf:Bag>
</dc:subject>
</cc:Work>
<cc:License rdf:about="http://creativecommons.org/licenses/publicdomain/">
<cc:permits rdf:resource="http://creativecommons.org/ns#Reproduction"/>
<cc:permits rdf:resource="http://creativecommons.org/ns#Distribution"/>
<cc:permits rdf:resource="http://creativecommons.org/ns#DerivativeWorks"/>
</cc:License>
</rdf:RDF>
</metadata>
</svg>
